 
 
*               * * * * * * * * * * * * * * * * * * * * * * * *                 
*               *                                             *                 
*               *    Program:  LaGriT V3.107   Linux m64      *                 
*               *    date_compile: 2015/06/24  Ubu gf.so      *                 
*               *    Run Time: 2016/Apr  7  10:11:54          *                 
*               *    Manual:   http://lagrit.lanl.gov         *                 
*               *                                             *                 
*               * * * * * * * * * * * * * * * * * * * * * * * *                 
 
                               -----oOo-----                                    
                           LaGriT V3 LACC-2012-084                              
LaGriT Copyright: This program was prepared by Los Alamos National Security, LLC
at Los Alamos National Laboratory (LANL) under contract No. DE-AC52-06NA25396   
with the U.S. Department of Energy (DOE). All rights in the program are reserved
by the DOE and Los Alamos National Security, LLC. Permission is granted to the  
public to copy and use this software without charge, provided that this Notice  
and any statement of authorship are reproduced on all copies. Neither the       
U.S. Government nor LANS makes any warranty, express or implied, or assumes     
any liability or responsibility for the use of this software.                   
                               -----oOo-----                                    
 
 
Output log file: outx3dgen                                                      
Command log file: logx3dgen                                                     
 
# check tet mesh quality                                                        
# these are at zero coordinates                                                 
# read pyramid tet mesh                                                         
read avs tet_zero.inp cmotet                                                    
geniee                                                                          
finish                                                                          
cmo/status/brief                                                                
 
The current-mesh-object(CMO) is: cmotet                                         
 
  1 Mesh Object name: cmotet                                                    
    number of nodes =         66420        number of elements =       395679    
    dimensions geometry =         3        element type =                tet    
    dimensions topology =         3        4 nodes      4 faces      6 edges    
    boundary flag =        16000000        status =                   active    
 
 
finish                                                                          
cmo/select/cmotet                                                               
filter                                                                          
 
FILTER:Use internal epsilonl value =   0.739751857011E-09                       
 
FILTER:Dudding      0 duplicate points.                                         
rmpoint compress                                                                
         0 points removed and          0 elements removed.                      
   The new point count is     66420.                                            
   The new element count is    395679.                                          
resetpts itp                                                                    
geniee                                                                          
finish                                                                          
dump gmv tet_zero.gmv cmotet                                                    
cmo/modatt/-def-/-def-/ioflag/x                                                 
finish                                                                          
cmo printatt cmotet -xyz- minmax                                                
ATTRIBUTE NAME              MIN               MAX         DIFFERENCE    LENGTH  
 xic               -1.640000000E+03  1.480000000E+03 3.120000000E+03     66420  
 yic               -2.400000000E+02  6.800000000E+02 9.200000000E+02     66420  
 zic                1.700000000E+03  2.420000000E+03 7.200000000E+02     66420  
 
# need to remove outside elements at stair step sides                           
read avs stack.inp mo_src                                                       
cmo/addatt/mo_src/layertyp/VINT/scalar/nnodes/linear/permanent/gxaf/0.0         
finish                                                                          
geniee                                                                          
finish                                                                          
cmo/status/brief                                                                
 
The current-mesh-object(CMO) is: mo_src                                         
 
  1 Mesh Object name: cmotet                                                    
    number of nodes =         66420        number of elements =       395679    
    dimensions geometry =         3        element type =                tet    
    dimensions topology =         3        4 nodes      4 faces      6 edges    
    boundary flag =        16000000        status =                 inactive    
 
  2 Mesh Object name: mo_src                                                    
    number of nodes =         66420        number of elements =        60456    
    dimensions geometry =         3        element type =                hex    
    dimensions topology =         3        8 nodes      6 faces     12 edges    
    boundary flag =        16000000        status =                   active    
 
 
finish                                                                          
cmo select mo_src                                                               
define XTRANS 492305.                                                           
define YTRANS 537685.                                                           
trans/1,0,0/XTRANS YTRANS 0./0. 0. 0.                                           
cmo/addatt/mo_src/transauto/VDOUBLE/scalar/vector/user/permanent/x/0.0          
finish                                                                          
# remove outside tets and color                                                 
# color from stack hex mesh                                                     
cmo printatt cmotet -xyz- minmax                                                
ATTRIBUTE NAME              MIN               MAX         DIFFERENCE    LENGTH  
 xic               -1.640000000E+03  1.480000000E+03 3.120000000E+03     66420  
 yic               -2.400000000E+02  6.800000000E+02 9.200000000E+02     66420  
 zic                1.700000000E+03  2.420000000E+03 7.200000000E+02     66420  
 
cmo printatt mo_src -xyz- minmax                                                
ATTRIBUTE NAME              MIN               MAX         DIFFERENCE    LENGTH  
 xic               -1.640000000E+03  1.480000000E+03 3.120000000E+03     66420  
 yic               -2.400000000E+02  6.800000000E+02 9.200000000E+02     66420  
 zic                1.700000000E+03  2.420000000E+03 7.200000000E+02     66420  
 
interpolate/map/cmotet itetclr/1,0,0/mo_src itetclr                             
elements in indexed set  =     395679                                           
 
INTRP METHOD:        map   FUNCTION:       user                                 
      TIEBREAKER:     maxtie   FLAG:      plus1  0.310000000000E+02             
 
cmo select mo_src                                                               
finish                                                                          
cmo kdtree build                                                                
cmo/addatt//v2/INT/scalar/scalar/constant/temporary//2.0                        
finish                                                                          
cmo/addatt//linkt/VINT/v2/nelements//temporary/x/0.0                            
finish                                                                          
cmo/addatt//v12/INT/scalar/scalar/constant/temporary//12.0                      
finish                                                                          
cmo/addatt//sbox/VDOUBLE/v12/nelements/linear/temporary/x/0.0                   
finish                                                                          
finish                                                                          
 
     Sink point   Elems Searched  Elements Found  Percent Done                  
          19785            19734          18988        5 %                      
          39569            39640          38109       10 %                      
          59353            59519          57177       15 %                      
          79137            79311          76267       20 %                      
          98921            99216          95390       25 %                      
         118705           119155         114528       30 %                      
         138489           139091         133631       35 %                      
         158273           158975         152696       40 %                      
         178057           178929         171825       45 %                      
         197841           198989         191012       50 %                      
         217625           218956         210113       55 %                      
         237409           238976         229234       60 %                      
         257193           259063         248399       65 %                      
         276977           279052         267452       70 %                      
         296761           299302         286624       75 %                      
         316545           319558         305795       80 %                      
         336329           339881         324987       85 %                      
         356113           360281         344182       90 %                      
         375897           380810         363400       95 %                      
         395679           401323         382479    Total                        
 
cmo select cmotet                                                               
finish                                                                          
WARNING: Sink points not inside source grid:           13200                    
Total sink points marked:           13200 with flag:          31.00             
intrp/map done.                                                                 
 
cmo kdtree release                                                              
cmo/DELATT/mo_src/sbox                                                          
finish                                                                          
cmo/DELATT/mo_src/v12                                                           
finish                                                                          
cmo/DELATT/mo_src/linkt                                                         
finish                                                                          
cmo/DELATT/mo_src/v2                                                            
finish                                                                          
finish                                                                          
dump gmv tmp_color.gmv cmotet                                                   
cmo/modatt/-def-/-def-/ioflag/x                                                 
finish                                                                          
# remove tets outside bndry                                                     
cmo select cmotet                                                               
eltset edel itetclr gt 30                                                       
 
 THE ELTSET edel                             HAS      13200 ELEMENTS            
rmpoint element eltset,get,edel                                                 
 Dudded         0 points plus parents, and      13200 elements removed.         
rmpoint compress                                                                
         0 points removed and          0 elements removed.                      
   The new point count is     66420.                                            
   The new element count is    382479.                                          
resetpts itp                                                                    
geniee                                                                          
finish                                                                          
# get tet volumes                                                               
cmo/addatt/cmotet/volume/tet_volume                                             
ADDATT/volume: creating new attribute: tet_volume                               
# get voronoi volumes                                                           
cmo addatt cmotet vor_volume vorvol                                             
ADDATT/voronoi_volume: creating new attribute: vorvol                           
 
AMatbld3d_stor: Matrix compress_eps:  0.1000000E-07                             
AMatbld3d_stor: Local epsilon:  0.1000000E-14                                   
AMatbld3d_stor: *****Zero Negative Coefficients ******                          
AMatbld3d_stor: Number of 'zero' (< compress_eps) coefs         7               
AMatbld3d_stor: npoints =    66420  ncoefs =     978644                         
AMatbld3d_stor: Number of unique coefs =    522532                              
AMatbld3d_stor: Maximum num. connections to a node =         22                 
AMatbld3d_stor: Volume min =   1.8025757E+03                                    
AMatbld3d_stor: Volume max =   1.0507781E+05                                    
AMatbld3d_stor: Total Volume:   1.5828480E+09                                   
AMatbld3d_stor: abs(Aij/xij) min =   0.0000000E+00                              
AMatbld3d_stor: abs(Aij/xij) max =   4.4924881E+02                              
AMatbld3d_stor: (Aij/xij) max =   0.0000000E+00                                 
AMatbld3d_stor: (Aij/xij) min =  -4.4924881E+02                                 
AMatbld3d_stor Matrix coefficient values stored as scalar area/distance         
AMatbld3d_stor Matrix compression used for graph, not coefficient values        
cmotet attribute with voronoi volumes created with name vorvol                  
 
*** SPARSE COEFFICIENT MATRIX _gstor SUCCESSFUL ***                             
 
3D Matrix Coefficient file written with name -notset-                           
 
cmo/addatt/cmotet/ccoef/VDOUBLE/scalar/nnodes/                                  
dump/stor/tet/cmotet                                                            
 
*** Construct and Compress Sparse Matrix:3D ***                                 
   *** Compress Area Coefficient Values ***                                     
 
AMatbld3d_stor: Matrix compress_eps:  0.1000000E-07                             
AMatbld3d_stor: Local epsilon:  0.1000000E-14                                   
AMatbld3d_stor: *****Zero Negative Coefficients ******                          
AMatbld3d_stor: Number of 'zero' (< compress_eps) coefs         7               
AMatbld3d_stor: npoints =    66420  ncoefs =     978644                         
AMatbld3d_stor: Number of unique coefs =    287231                              
AMatbld3d_stor: Maximum num. connections to a node =         22                 
AMatbld3d_stor: Volume min =   1.8025757E+03                                    
AMatbld3d_stor: Volume max =   1.0507781E+05                                    
AMatbld3d_stor: Total Volume:   1.5828480E+09                                   
AMatbld3d_stor: abs(Aij/xij) min =   2.6991441E-06                              
AMatbld3d_stor: abs(Aij/xij) max =   4.4924881E+02                              
AMatbld3d_stor: (Aij/xij) max =  -2.6991441E-06                                 
AMatbld3d_stor: (Aij/xij) min =  -4.4924881E+02                                 
AMatbld3d_stor Matrix coefficient values stored as scalar area/distance         
AMatbld3d_stor Matrix compression used for graph and coefficient values         
ascii STOR file written with name tet.stor                                      
 
*** SPARSE COEFFICIENT MATRIX _astor SUCCESSFUL ***                             
 
3D Matrix Coefficient file written with name tet.stor                           
 
cmo printatt cmotet -all- minmax                                                
ATTRIBUTE NAME              MIN               MAX         DIFFERENCE    LENGTH  
 -def-              0.000000000E+00  0.000000000E+00 0.000000000E+00     66420  
 scalar                           1                1               0         1  
 vector                           3                3               0         1  
 nnodes                       66420            66420               0         1  
 nedges                           0                0               0         1  
 nfaces                           0                0               0         1  
 nelements                   382479           382479               0         1  
 mbndry                    16000000         16000000               0         1  
 ndimensions_topo                 3                3               0         1  
 ndimensions_geom                 3                3               0         1  
 nodes_per_element                4                4               0         1  
 edges_per_element                6                6               0         1  
 faces_per_element                4                4               0         1  
 isetwd                           0                0               0     66420  
 ialias                           0                0               0     66420  
 imt1                             1                1               0     66420  
 itp1                             0               12              12     66420  
 icr1                             0                0               0     66420  
 isn1                             0                0               0     66420  
 xic               -1.640000000E+03  1.480000000E+03 3.120000000E+03     66420  
 yic               -2.400000000E+02  6.800000000E+02 9.200000000E+02     66420  
 zic                1.700000000E+03  2.420000000E+03 7.200000000E+02     66420  
 xtetwd                           0                0               0    382479  
 itetclr                         10               30              20    382479  
 itettyp                          5                5               0    382479  
 itetoff                          0          1529912         1529912    382479  
 jtetoff                          0          1529912         1529912    382479  
 itet                             1            66420           66419    382479x4
 jtet                             1         17529896        17529895    382479x4
 epsilon            1.000000004E-15  1.000000004E-15 0.000000000E+00         1  
 epsilonl           7.397518570E-10  7.397518570E-10 0.000000000E+00         1  
 epsilona           2.464517479E-06  2.464517479E-06 0.000000000E+00         1  
 epsilonv           4.588969205E-04  4.588969205E-04 0.000000000E+00         1  
 ipointi                          1                1               0         1  
 ipointj                      66420            66420               0         1  
 idebug                           0                0               0         1  
 itypconv_sm                      1                1               0         1  
 maxiter_sm                      25               25               0         1  
 tolconv_sm         1.000000000E+00  1.000000000E+00 0.000000000E+00         1  
 nnfreq                           1                1               0         1  
 ivoronoi                         1                1               0         1  
 iopt2to2                         2                2               0         1  
 xmin              -1.640000000E+03 -1.640000000E+03 0.000000000E+00         1  
 ymin              -2.400000000E+02 -2.400000000E+02 0.000000000E+00         1  
 zmin               1.700000000E+03  1.700000000E+03 0.000000000E+00         1  
 xmax               1.480000000E+03  1.480000000E+03 0.000000000E+00         1  
 ymax               6.800000000E+02  6.800000000E+02 0.000000000E+00         1  
 zmax               2.420000000E+03  2.420000000E+03 0.000000000E+00         1  
 kdtree_level                     0                0               0         1  
 max_number_sets                 64               64               0         1  
 number_of_psets                  0                0               0         1  
 number_of_eltsets                0                0               0         1  
 number_of_fsets                  0                0               0         1  
 tet_volume         8.046933302E-03  3.166614056E+04 3.166613251E+04    382479  
 vorvol             1.802575728E+03  1.050778057E+05 1.032752299E+05     66420  
 ccoef              0.000000000E+00  0.000000000E+00 0.000000000E+00     66420  
 
* check ccoef                                                                   
cmo select cmotet                                                               
cmo printatt cmotet -all- minmax                                                
ATTRIBUTE NAME              MIN               MAX         DIFFERENCE    LENGTH  
 -def-              0.000000000E+00  0.000000000E+00 0.000000000E+00     66420  
 scalar                           1                1               0         1  
 vector                           3                3               0         1  
 nnodes                       66420            66420               0         1  
 nedges                           0                0               0         1  
 nfaces                           0                0               0         1  
 nelements                   382479           382479               0         1  
 mbndry                    16000000         16000000               0         1  
 ndimensions_topo                 3                3               0         1  
 ndimensions_geom                 3                3               0         1  
 nodes_per_element                4                4               0         1  
 edges_per_element                6                6               0         1  
 faces_per_element                4                4               0         1  
 isetwd                           0                0               0     66420  
 ialias                           0                0               0     66420  
 imt1                             1                1               0     66420  
 itp1                             0               12              12     66420  
 icr1                             0                0               0     66420  
 isn1                             0                0               0     66420  
 xic               -1.640000000E+03  1.480000000E+03 3.120000000E+03     66420  
 yic               -2.400000000E+02  6.800000000E+02 9.200000000E+02     66420  
 zic                1.700000000E+03  2.420000000E+03 7.200000000E+02     66420  
 xtetwd                           0                0               0    382479  
 itetclr                         10               30              20    382479  
 itettyp                          5                5               0    382479  
 itetoff                          0          1529912         1529912    382479  
 jtetoff                          0          1529912         1529912    382479  
 itet                             1            66420           66419    382479x4
 jtet                             1         17529896        17529895    382479x4
 epsilon            1.000000004E-15  1.000000004E-15 0.000000000E+00         1  
 epsilonl           7.397518570E-10  7.397518570E-10 0.000000000E+00         1  
 epsilona           2.464517479E-06  2.464517479E-06 0.000000000E+00         1  
 epsilonv           4.588969205E-04  4.588969205E-04 0.000000000E+00         1  
 ipointi                          1                1               0         1  
 ipointj                      66420            66420               0         1  
 idebug                           0                0               0         1  
 itypconv_sm                      1                1               0         1  
 maxiter_sm                      25               25               0         1  
 tolconv_sm         1.000000000E+00  1.000000000E+00 0.000000000E+00         1  
 nnfreq                           1                1               0         1  
 ivoronoi                         1                1               0         1  
 iopt2to2                         2                2               0         1  
 xmin              -1.640000000E+03 -1.640000000E+03 0.000000000E+00         1  
 ymin              -2.400000000E+02 -2.400000000E+02 0.000000000E+00         1  
 zmin               1.700000000E+03  1.700000000E+03 0.000000000E+00         1  
 xmax               1.480000000E+03  1.480000000E+03 0.000000000E+00         1  
 ymax               6.800000000E+02  6.800000000E+02 0.000000000E+00         1  
 zmax               2.420000000E+03  2.420000000E+03 0.000000000E+00         1  
 kdtree_level                     0                0               0         1  
 max_number_sets                 64               64               0         1  
 number_of_psets                  0                0               0         1  
 number_of_eltsets                0                0               0         1  
 number_of_fsets                  0                0               0         1  
 tet_volume         8.046933302E-03  3.166614056E+04 3.166613251E+04    382479  
 vorvol             1.802575728E+03  1.050778057E+05 1.032752299E+05     66420  
 ccoef              0.000000000E+00  0.000000000E+00 0.000000000E+00     66420  
 
pset pneg attribute ccoef 1,0,0 lt -.0001                                       
 
 THE PSET  pneg  HAS          0 POINTS                                          
define cmo1 cmotet                                                              
* Compute the various tet quality measures                                      
*                                                                               
* Minimum Dihedral Angle, (degree)                                              
cmo/addatt/cmo1/ang_mind/ang_mind                                               
ADDATT/ang_mind: creating new attribute: ang_mind                               
* Minimum Dihedral Angle, (radian)                                              
cmo/addatt/cmo1/ang_minr/ang_minr                                               
ADDATT/ang_minr: creating new attribute: ang_minr                               
* Maximum Dihedral Angle, (degree)                                              
cmo/addatt/cmo1/ang_maxd/ang_maxd                                               
ADDATT/ang_maxd: creating new attribute: ang_maxd                               
* Maximum Dihedral Angle, (radian)                                              
cmo/addatt/cmo1/ang_maxr/ang_maxr                                               
ADDATT/ang_maxr: creating new attribute: ang_maxr                               
* Minimum Solid Angle, (degree)                                                 
cmo/addatt/cmo1/ang_mind_solid/s_mind                                           
ADDATT/ang_mind_solid: creating new attribute: s_mind                           
* Minimum Solid Angle, (radian)                                                 
cmo/addatt/cmo1/ang_minr_solid/s_minr                                           
ADDATT/ang_minr_solid: creating new attribute: s_minr                           
* Maximum Solid Angle, (degree)                                                 
cmo/addatt/cmo1/ang_maxd_solid/s_maxd                                           
ADDATT/ang_maxd_solid: creating new attribute: s_maxd                           
* Maximum Solid Angle, (radian)                                                 
cmo/addatt/cmo1/ang_maxr_solid/s_maxr                                           
ADDATT/ang_maxr_solid: creating new attribute: s_maxr                           
* Aspect Ratio                                                                  
quality/aspect/y                                                                
cmo/addatt//aratio/VDOUBLE/scalar/nelements                                     
finish                                                                          
 
epsilonl, epsilonaspect:   7.3975186E-10  4.0481649E-28                         
--------------------------------------------                                    
elements with aspect ratio < .01:                13360                          
elements with aspect ratio b/w .01 and .02:       2276                          
elements with aspect ratio b/w .02 and .05:       2265                          
elements with aspect ratio b/w .05 and .1 :       1262                          
elements with aspect ratio b/w .1  and .2 :       8568                          
elements with aspect ratio b/w .2  and .5 :     221574                          
elements with aspect ratio b/w .5  and 1. :     133174                          
min aspect ratio =  0.8002E-06  max aspect ratio =  0.9994E+00                  
-----------------------------------------------------------                     
    382479 total elements evaluated.                                            
 
* ( minimum edge lenght ) / ( maximum edge length )                             
quality/edge_ratio/y                                                            
cmo/addatt//eratio/VDOUBLE/scalar/nelements                                     
finish                                                                          
 
epsilonl, epsilonaspect:   7.3975186E-10  4.0481649E-28                         
--------------------------------------------                                    
element norm min/max edge ratio < .01:                    0                     
elements with min/max edge ratio b/w .01 and .02:          0                    
elements with min/max edge ratio b/w .02 and .05:          0                    
elements with min/max edge ratio b/w .05 and .1 :       1628                    
elements with min/max edge ratio b/w .1  and .2 :     108497                    
elements with min/max edge ratio b/w .2  and .5 :     128398                    
elements with min/max edge ratio b/w .5  and 1. :     143956                    
min edge ratio =  0.6273E-01  max edge ratio =  0.9812E+00                      
-----------------------------------------------------------                     
    382479 total elements evaluated.                                            
 
* Edge lenght minimum                                                           
quality/edge_min/y                                                              
cmo/addatt//edgemin/VDOUBLE/scalar/nelements                                    
finish                                                                          
 
epsilonl, epsilonaspect:   7.3975186E-10  4.0481649E-28                         
--------------------------------------------                                    
element norm min edge length < .01:                    0                        
element norm edge length b/w .01 and .02:          0                            
element norm edge length b/w .02 and .05:          0                            
element norm edge length b/w .05 and .1 :       1743                            
element norm edge length b/w .1  and .2 :     112189                            
element norm edge length b/w .2  and .5 :     115054                            
element norm edge length b/w .5  and 1. :     153493                            
min min edge length =  0.3550E+01  max min edge length =  0.5666E+02            
-----------------------------------------------------------                     
    382479 total elements evaluated.                                            
 
* Edge length maximum                                                           
quality/edge_max/y                                                              
cmo/addatt//edgemax/VDOUBLE/scalar/nelements                                    
finish                                                                          
 
epsilonl, epsilonaspect:   7.3975186E-10  4.0481649E-28                         
--------------------------------------------                                    
element norm max edge length < .01:                    0                        
element norm edge length b/w .01 and .02:          0                            
element norm edge length b/w .02 and .05:          0                            
element norm edge length b/w .05 and .1 :          0                            
element norm edge length b/w .1  and .2 :          0                            
element norm edge length b/w .2  and .5 :          0                            
element norm edge length b/w .5  and 1. :     382479                            
min max edge length =  0.5657E+02  max max edge length =  0.8474E+02            
-----------------------------------------------------------                     
    382479 total elements evaluated.                                            
 
*                                                                               
* Identify Slivers                                                              
*                                                                               
* Define adjustable parameters to determine cut-off values.                     
*                                                                               
define/MIN_DIHEDRAL/10.0                                                        
define/MAX_DIHEDRAL/170.0                                                       
define/MAX_SOLID_ANG_BIG/170.0                                                  
define/MAX_SOLID_ANG_SMALL/10.0                                                 
define/EDGE_RATIO/0.1                                                           
*                                                                               
eltset/e_dih_small/ang_mind/le/MIN_DIHEDRAL                                     
 
 THE ELTSET e_dih_small                      HAS      25106 ELEMENTS            
eltset/e_dih_big/ang_maxd/ge/MAX_DIHEDRAL                                       
 
 THE ELTSET e_dih_big                        HAS      19866 ELEMENTS            
eltset/e_solid_big/s_maxd/le/MAX_SOLID_ANG_SMALL                                
 
 THE ELTSET e_solid_big                      HAS      76261 ELEMENTS            
eltset/e_tmp/inter/e_dih_small e_dih_big                                        
 
 THE ELTSET e_tmp                            HAS      19866 ELEMENTS            
eltset/e_sliver/inter/e_tmp e_solid_big                                         
 
 THE ELTSET e_sliver                         HAS      19866 ELEMENTS            
*                                                                               
* Identify Cap elements                                                         
*                                                                               
eltset/e_cap/s_maxd/ge/MAX_SOLID_ANG_BIG                                        
 
 THE ELTSET e_cap                            HAS          0 ELEMENTS            
*                                                                               
* Identify Needle elements                                                      
*                                                                               
eltset/e_edge_ratio/eratio/le/EDGE_RATIO                                        
 
 THE ELTSET e_edge_ratio                     HAS       1725 ELEMENTS            
eltset/e_dih_small/ang_mind/le/MIN_DIHEDRAL                                     
 
 THE ELTSET e_dih_small                      HAS      25106 ELEMENTS            
eltset/e_needle/not/e_edge_ratio e_dih_small                                    
 
 THE ELTSET e_needle                         HAS        733 ELEMENTS            
*                                                                               
* Identify Wedge elements                                                       
*                                                                               
eltset/e_wedge/inter/e_edge_ratio e_dih_small                                   
 
 THE ELTSET e_wedge                          HAS        992 ELEMENTS            
*                                                                               
* Set up some attributes to tag the elements.                                   
*                                                                               
cmo/addatt/cmo1/if_sliv/vint/scalar/nelements/-def-/-def-/-def-/1               
cmo/addatt/cmo1/if_cap/vint/scalar/nelements/-def-/-def-/-def-/1                
cmo/addatt/cmo1/if_ned/vint/scalar/nelements/-def-/-def-/-def-/1                
cmo/addatt/cmo1/if_wed/vint/scalar/nelements/-def-/-def-/-def-/1                
cmo/setatt/cmo1/if_sliv/eltset get e_sliver/2                                   
     19866 values reset for attribute if_sliv                                   
 
cmo/setatt/cmo1/if_cap/eltset get e_cap/2                                       
No values acquired for indexed set of if_cap                                    
cmo/setatt/cmo1/if_ned/eltset get e_needle/2                                    
       733 values reset for attribute if_ned                                    
 
cmo/setatt/cmo1/if_wed/eltset get e_wedge/2                                     
       992 values reset for attribute if_wed                                    
 
quality volume                                                                  
 
epsilonvol:   4.5889692E-04                                                     
---------------------------------------                                         
element volumes b/w  0.8047E-02 and  0.1677E+00:        48                      
element volumes b/w  0.1677E+00 and  0.3496E+01:       877                      
element volumes b/w  0.3496E+01 and  0.7288E+02:     11125                      
element volumes b/w  0.7288E+02 and  0.1519E+04:     10063                      
element volumes b/w  0.1519E+04 and  0.3167E+05:    360366                      
min volume =   8.0469333E-03  max volume =   3.1666141E+04                      
-----------------------------------------------------------                     
    382479 total elements evaluated.                                            
 
dump gmv ck_tet_full.gmv cmotet                                                 
cmo/modatt/-def-/-def-/ioflag/x                                                 
finish                                                                          
dump avs ck_tet_full.inp cmotet                                                 
cmo/modatt/-def-/-def-/ioflag/x                                                 
finish                                                                          
cmo printatt cmotet -all- minmax                                                
ATTRIBUTE NAME              MIN               MAX         DIFFERENCE    LENGTH  
 -def-              0.000000000E+00  0.000000000E+00 0.000000000E+00     66420  
 scalar                           1                1               0         1  
 vector                           3                3               0         1  
 nnodes                       66420            66420               0         1  
 nedges                           0                0               0         1  
 nfaces                           0                0               0         1  
 nelements                   382479           382479               0         1  
 mbndry                    16000000         16000000               0         1  
 ndimensions_topo                 3                3               0         1  
 ndimensions_geom                 3                3               0         1  
 nodes_per_element                4                4               0         1  
 edges_per_element                6                6               0         1  
 faces_per_element                4                4               0         1  
 isetwd                           0                0               0     66420  
 ialias                           0                0               0     66420  
 imt1                             1                1               0     66420  
 itp1                             0               12              12     66420  
 icr1                             0                0               0     66420  
 isn1                             0                0               0     66420  
 xic               -1.640000000E+03  1.480000000E+03 3.120000000E+03     66420  
 yic               -2.400000000E+02  6.800000000E+02 9.200000000E+02     66420  
 zic                1.700000000E+03  2.420000000E+03 7.200000000E+02     66420  
 xtetwd                           0              642             642    382479  
 itetclr                         10               30              20    382479  
 itettyp                          5                5               0    382479  
 itetoff                          0          1529912         1529912    382479  
 jtetoff                          0          1529912         1529912    382479  
 itet                             1            66420           66419    382479x4
 jtet                             1         17529896        17529895    382479x4
 epsilon            1.000000004E-15  1.000000004E-15 0.000000000E+00         1  
 epsilonl           7.397518570E-10  7.397518570E-10 0.000000000E+00         1  
 epsilona           2.464517479E-06  2.464517479E-06 0.000000000E+00         1  
 epsilonv           4.588969205E-04  4.588969205E-04 0.000000000E+00         1  
 ipointi                          1                1               0         1  
 ipointj                      66420            66420               0         1  
 idebug                           0                0               0         1  
 itypconv_sm                      1                1               0         1  
 maxiter_sm                      25               25               0         1  
 tolconv_sm         1.000000000E+00  1.000000000E+00 0.000000000E+00         1  
 nnfreq                           1                1               0         1  
 ivoronoi                         1                1               0         1  
 iopt2to2                         2                2               0         1  
 xmin              -1.640000000E+03 -1.640000000E+03 0.000000000E+00         1  
 ymin              -2.400000000E+02 -2.400000000E+02 0.000000000E+00         1  
 zmin               1.700000000E+03  1.700000000E+03 0.000000000E+00         1  
 xmax               1.480000000E+03  1.480000000E+03 0.000000000E+00         1  
 ymax               6.800000000E+02  6.800000000E+02 0.000000000E+00         1  
 zmax               2.420000000E+03  2.420000000E+03 0.000000000E+00         1  
 kdtree_level                     0                0               0         1  
 max_number_sets                 64               64               0         1  
 number_of_psets                  1                1               0         1  
 number_of_eltsets                0                0               0         1  
 number_of_fsets                  0                0               0         1  
 tet_volume         8.046933302E-03  3.166614056E+04 3.166613251E+04    382479  
 vorvol             1.802575728E+03  1.050778057E+05 1.032752299E+05     66420  
 ccoef              0.000000000E+00  0.000000000E+00 0.000000000E+00     66420  
 ang_mind           4.322321312E-05  6.946928590E+01 6.946924268E+01    382479  
 ang_minr           7.543873822E-07  1.212467768E+00 1.212467014E+00    382479  
 ang_maxd           7.213874589E+01  1.799999389E+02 1.078611930E+02    382479  
 ang_maxr           1.259058634E+00  3.141591587E+00 1.882532953E+00    382479  
 s_mind             2.529730505E-05  3.146438013E+01 3.146435483E+01    382479  
 s_minr             4.415212650E-07  5.491570303E-01 5.491565888E-01    382479  
 s_maxd             2.531416936E-05  9.316856248E+01 9.316853716E+01    382479  
 s_maxr             4.418156028E-07  1.626098175E+00 1.626097733E+00    382479  
 aratio             8.001575700E-07  9.994059005E-01 9.994051003E-01    382479  
 eratio             6.273181070E-02  9.811627258E-01 9.184309151E-01    382479  
 edgemin            3.550275687E+00  5.665640574E+01 5.310613005E+01    382479  
 edgemax            5.656854249E+01  8.473513400E+01 2.816659150E+01    382479  
 if_sliv                          1                2               1    382479  
 if_cap                           1                1               0    382479  
 if_ned                           1                2               1    382479  
 if_wed                           1                2               1    382479  
 
finish                                                                          
LaGriT successfully completed                                                   
