   19 19 0 0 0 
1 491945.01883783  537917.53545559 0.
2 491932.53850093  537865.09792454  0.
3 492057.34186995  537817.65444407  0.
4 492194.62557587  537792.68419119  0.
5 492381.83062939  537792.68419119  0.
6 492506.63399841  537842.62469695  0.
7 492584.0120872  537892.56520271  0.
8 492653.90197385  537940.00868318  0.
9 492738.76826478  537947.49975904  0.
10 492806.16208405  537945.00273376  0.
11 492891.02837498  537937.51165789  0.
12 492898.51657712  537999.93729009  0.
13 492803.66601667  538009.92539124  0.
14 492708.81545622  538007.42836595  0.
15 492598.98849148  537999.93729009  0.
16 492529.09860483  537954.99083491  0.
17 492444.2323139  537895.062228  0.
18 492366.85422511  537855.10982339  0.
19 492212.09804753  537850.11577282  0.
1 1 line 1 2
2 1 line 2 3
3 1 line 3 4
4 1 line 4 5
5 1 line 5 6
6 1 line 6 7
7 1 line 7 8
8 1 line 8 9
9 1 line 9 10
10 1 line 10 11
11 1 line 11 12
12 1 line 12 13
13 1 line 13 14
14 1 line 14 15
15 1 line 15 16
16 1 line 16 17
17 1 line 17 18
18 1 line 18 19
19 1 line 19 1
